points,punt detectie,koppelling,stralenbundel vereffening
number,number,number,number
200,43.100,44.065,44.806
300,43.019,43.927,44.857
400,43.512,44.812,46.336
500,43.379,44.879,46.224
1000,44.079,46.861,49.312
1500,44.057,49.523,52.254
2000,45.764,55.283,58.601
2500,44.924,54.710,58.686
3000,45.269,57.267,61.645
3500,47.043,61.238,67.120
4000,45.394,61.601,68.276
4500,45.169,63.396,70.992
5000,45.427,65.588,73.608
5500,45.919,68.398,76.982
6000,45.982,70.667,79.812
6500,46.902,74.057,82.743
7000,46.940,76.073,85.186
7500,47.408,79.023,89.812
8000,47.625,81.646,91.467
8500,47.780,85.169,97.085
9000,48.487,87.920,100.202
9500,48.536,90.640,102.603
10000,48.536,92.859,105.006
10500,48.849,96.424,109.771
11000,49.077,99.793,112.508
11500,49.732,103.400,117.706
12000,50.105,107.117,121.054
12500,50.042,109.650,124.885
13000,51.404,120.254,141.321
13500,50.188,116.711,132.692
14000,50.394,120.165,136.754
14500,50.377,122.778,139.39
15000,52.306,137.488,159.515