13622.78823 6139.826598
14808.80889 6571.548012
13075.07562 4856.810442
15317.37457 6927.703116
19320.46537 8522.33249
21198.24839 3542.416828
3352.220445 6884.348922
3423.015224 6350.821617
1447.306874 6176.053723
9875.124139 4509.752807
12683.48788 5352.909996
11946.82839 5072.044735
7563.393086 8428.343934
12548.2823 6574.338678
14704.983 6827.032222
14106.82134 7050.359726
10965.25094 8037.782548
19578.74887 9134.033397
1810.092146 7315.915353
13275.55225 4622.883624
14370.11291 4615.229347
23268.85744 2301.004377
1336.166117 2002.699227
4625.600871 2391.274926