-3.337 -1.084 2.147
-3.329 -0.260 1.003
-3.352 -1.403 0.176
-3.238 1.580 0.299
-4.564 -1.331 3.382
-1.136 1.527 0.301
1.457 1.453 2.958
2.196 1.450 0.286
3.040 1.425 2.601
6.867 -1.677 0.192
6.864 -1.775 0.891
11.247 1.243 2.905
6.863 -1.679 3.499
11.232 1.340 0.806
1.519 -1.545 2.130
-2.372 -1.459 2.125
-0.399 -1.501 2.128
2.557 -1.571 0.206
-1.854 -1.488 0.572
-2.703 1.268 0.034
-1.824 0.348 0.033
0.838 -1.510 0.038
2.399 1.156 0.041
5.986 0.172 0.038
-3.638 -0.827 3.526
-3.609 0.948 3.529
3.594 0.802 3.531
3.589 0.201 3.529
3.561 -0.998 3.527